<!-- Generator: Adobe Illustrator 22.1.0, SVG Export Plug-In  -->
<svg version="1.1"
	 xmlns="http://www.w3.org/2000/svg" xmlns:xlink="http://www.w3.org/1999/xlink" xmlns:a="http://ns.adobe.com/AdobeSVGViewerExtensions/3.0/"
	 x="0px" y="0px" width="93.202px" height="14.955px" viewBox="0 0 93.202 14.955"
	 style="enable-background:new 0 0 93.202 14.955;" xml:space="preserve">
<style type="text/css">
	.st0{fill:none;}
	.st1{fill:#58595B;}
	.st2{font-family:'Arial-BoldMT';}
	.st3{font-size:10px;}
</style>
<defs>
</defs>
<g>
	<rect y="1.419" class="st0" width="93.202" height="13.536"/>
	<path class="st1" d="M5.474,8.579H4.199V7.817C3.988,8.113,3.738,8.334,3.45,8.479C3.162,8.624,2.871,8.696,2.578,8.696
		c-0.596,0-1.106-0.24-1.531-0.721C0.623,7.496,0.41,6.826,0.41,5.967c0-0.879,0.207-1.547,0.62-2.005
		c0.414-0.457,0.936-0.686,1.567-0.686c0.58,0,1.081,0.241,1.504,0.723V1.421h1.372V8.579z M1.812,5.874
		c0,0.554,0.077,0.954,0.229,1.201c0.221,0.358,0.531,0.537,0.928,0.537c0.316,0,0.584-0.135,0.806-0.402
		c0.221-0.27,0.332-0.67,0.332-1.204c0-0.596-0.107-1.024-0.322-1.286c-0.215-0.263-0.49-0.394-0.825-0.394
		c-0.326,0-0.598,0.13-0.818,0.388C1.921,4.974,1.812,5.359,1.812,5.874z"/>
	<path class="st1" d="M6.826,2.69v-1.27h1.372v1.27H6.826z M6.826,8.579V3.394h1.372v5.186H6.826z"/>
	<path class="st1" d="M9.556,8.579V1.421h1.372V5.22l1.606-1.826h1.689l-1.772,1.895l1.899,3.291h-1.479L11.567,6.25l-0.64,0.669
		v1.66H9.556z"/>
	<path class="st1" d="M18.169,6.929l1.367,0.229c-0.176,0.501-0.453,0.883-0.833,1.146c-0.379,0.262-0.854,0.393-1.423,0.393
		c-0.902,0-1.569-0.295-2.002-0.884c-0.342-0.472-0.513-1.067-0.513-1.787c0-0.859,0.225-1.532,0.674-2.019
		c0.449-0.487,1.017-0.73,1.704-0.73c0.771,0,1.38,0.255,1.826,0.764c0.446,0.51,0.659,1.29,0.64,2.342h-3.438
		c0.01,0.407,0.121,0.724,0.332,0.949c0.211,0.227,0.475,0.34,0.791,0.34c0.215,0,0.396-0.059,0.542-0.176
		S18.094,7.189,18.169,6.929z M18.247,5.542c-0.01-0.397-0.112-0.699-0.308-0.906c-0.195-0.206-0.433-0.31-0.713-0.31
		c-0.299,0-0.547,0.109-0.742,0.327s-0.292,0.515-0.288,0.889H18.247z"/>
	<path class="st1" d="M20.728,8.579V1.421H22.1v7.158H20.728z"/>
	<path class="st1" d="M26.919,8.579V7.803c-0.189,0.276-0.437,0.495-0.745,0.654S25.542,8.696,25.2,8.696
		c-0.348,0-0.661-0.076-0.938-0.229s-0.477-0.368-0.601-0.645s-0.186-0.659-0.186-1.147V3.394h1.372v2.383
		c0,0.729,0.025,1.176,0.076,1.34c0.05,0.165,0.143,0.295,0.276,0.391c0.133,0.097,0.303,0.145,0.508,0.145
		c0.234,0,0.444-0.064,0.63-0.193c0.186-0.128,0.313-0.287,0.381-0.479c0.068-0.189,0.103-0.656,0.103-1.398V3.394h1.372v5.186
		H26.919z"/>
	<path class="st1" d="M30.64,4.976l-1.245-0.225c0.14-0.501,0.381-0.872,0.723-1.113s0.85-0.361,1.523-0.361
		c0.612,0,1.068,0.072,1.367,0.217c0.299,0.146,0.51,0.329,0.632,0.553c0.122,0.223,0.183,0.632,0.183,1.228l-0.015,1.602
		c0,0.456,0.022,0.792,0.066,1.009c0.044,0.216,0.126,0.448,0.247,0.695h-1.357c-0.036-0.091-0.08-0.227-0.132-0.405
		c-0.023-0.081-0.039-0.135-0.049-0.161c-0.234,0.228-0.485,0.398-0.752,0.513s-0.552,0.171-0.854,0.171
		c-0.534,0-0.955-0.145-1.262-0.435s-0.461-0.656-0.461-1.099c0-0.293,0.07-0.555,0.21-0.783c0.14-0.23,0.336-0.406,0.588-0.527
		c0.252-0.123,0.616-0.229,1.091-0.32c0.641-0.12,1.085-0.232,1.333-0.337V5.059c0-0.264-0.065-0.452-0.195-0.563
		c-0.13-0.113-0.376-0.169-0.737-0.169c-0.244,0-0.435,0.048-0.571,0.144C30.835,4.566,30.724,4.734,30.64,4.976z M32.476,6.089
		c-0.176,0.059-0.454,0.129-0.835,0.21s-0.63,0.161-0.747,0.239c-0.179,0.127-0.269,0.288-0.269,0.483
		c0,0.192,0.072,0.358,0.215,0.498s0.326,0.21,0.547,0.21c0.248,0,0.483-0.081,0.708-0.244c0.166-0.124,0.275-0.275,0.327-0.454
		c0.036-0.117,0.054-0.34,0.054-0.669V6.089z"/>
	<path class="st1" d="M36.489,8.579h-1.372V3.394h1.274v0.737c0.218-0.349,0.414-0.578,0.588-0.688s0.372-0.166,0.593-0.166
		c0.313,0,0.614,0.086,0.903,0.259l-0.425,1.196c-0.231-0.149-0.446-0.225-0.645-0.225c-0.192,0-0.355,0.053-0.488,0.158
		c-0.133,0.106-0.238,0.298-0.315,0.574s-0.115,0.856-0.115,1.738V8.579z"/>
	<path class="st1" d="M39.019,8.579V1.421h1.372V5.22l1.606-1.826h1.689l-1.772,1.895l1.899,3.291h-1.479L41.03,6.25l-0.64,0.669
		v1.66H39.019z"/>
	<path class="st1" d="M45.654,4.976l-1.245-0.225c0.14-0.501,0.381-0.872,0.723-1.113s0.85-0.361,1.523-0.361
		c0.612,0,1.068,0.072,1.367,0.217c0.299,0.146,0.51,0.329,0.632,0.553c0.122,0.223,0.183,0.632,0.183,1.228l-0.015,1.602
		c0,0.456,0.022,0.792,0.066,1.009c0.044,0.216,0.126,0.448,0.247,0.695h-1.357c-0.036-0.091-0.08-0.227-0.132-0.405
		c-0.023-0.081-0.039-0.135-0.049-0.161c-0.234,0.228-0.485,0.398-0.752,0.513s-0.552,0.171-0.854,0.171
		c-0.534,0-0.955-0.145-1.262-0.435s-0.461-0.656-0.461-1.099c0-0.293,0.07-0.555,0.21-0.783c0.14-0.23,0.336-0.406,0.588-0.527
		c0.252-0.123,0.616-0.229,1.091-0.32c0.641-0.12,1.085-0.232,1.333-0.337V5.059c0-0.264-0.065-0.452-0.195-0.563
		c-0.13-0.113-0.376-0.169-0.737-0.169c-0.244,0-0.435,0.048-0.571,0.144C45.85,4.566,45.739,4.734,45.654,4.976z M47.49,6.089
		c-0.176,0.059-0.454,0.129-0.835,0.21s-0.63,0.161-0.747,0.239c-0.179,0.127-0.269,0.288-0.269,0.483
		c0,0.192,0.072,0.358,0.215,0.498s0.326,0.21,0.547,0.21c0.248,0,0.483-0.081,0.708-0.244c0.166-0.124,0.275-0.275,0.327-0.454
		c0.036-0.117,0.054-0.34,0.054-0.669V6.089z"/>
	<path class="st1" d="M54.907,8.579h-1.372V5.933c0-0.56-0.029-0.922-0.088-1.086c-0.059-0.165-0.154-0.293-0.286-0.384
		s-0.291-0.137-0.476-0.137c-0.238,0-0.451,0.065-0.64,0.195s-0.318,0.303-0.388,0.518s-0.105,0.612-0.105,1.191v2.349h-1.372V3.394
		h1.274v0.762c0.453-0.586,1.022-0.879,1.709-0.879c0.303,0,0.58,0.055,0.83,0.164c0.25,0.108,0.44,0.248,0.569,0.417
		s0.218,0.361,0.269,0.576s0.076,0.522,0.076,0.923V8.579z"/>
	<path class="st1" d="M58.76,5.913c0-0.456,0.112-0.896,0.337-1.323s0.543-0.752,0.955-0.977s0.872-0.337,1.379-0.337
		c0.785,0,1.427,0.255,1.929,0.764c0.501,0.51,0.752,1.153,0.752,1.932c0,0.784-0.253,1.435-0.759,1.951
		c-0.506,0.516-1.144,0.773-1.912,0.773c-0.475,0-0.929-0.107-1.36-0.322s-0.759-0.529-0.984-0.945
		C58.872,7.015,58.76,6.509,58.76,5.913z M60.166,5.986c0,0.515,0.122,0.908,0.366,1.182s0.545,0.41,0.903,0.41
		s0.658-0.137,0.901-0.41S62.7,6.497,62.7,5.977c0-0.508-0.121-0.898-0.364-1.172s-0.543-0.41-0.901-0.41s-0.659,0.137-0.903,0.41
		S60.166,5.472,60.166,5.986z"/>
	<path class="st1" d="M65.186,8.579V1.421h1.372v7.158H65.186z"/>
	<path class="st1" d="M70.967,6.929l1.367,0.229c-0.176,0.501-0.453,0.883-0.833,1.146c-0.379,0.262-0.854,0.393-1.423,0.393
		c-0.902,0-1.569-0.295-2.002-0.884c-0.342-0.472-0.513-1.067-0.513-1.787c0-0.859,0.225-1.532,0.674-2.019
		c0.449-0.487,1.017-0.73,1.704-0.73c0.771,0,1.38,0.255,1.826,0.764c0.446,0.51,0.659,1.29,0.64,2.342H68.97
		c0.01,0.407,0.121,0.724,0.332,0.949c0.211,0.227,0.475,0.34,0.791,0.34c0.215,0,0.396-0.059,0.542-0.176
		S70.892,7.189,70.967,6.929z M71.045,5.542c-0.01-0.397-0.112-0.699-0.308-0.906c-0.195-0.206-0.433-0.31-0.713-0.31
		c-0.299,0-0.547,0.109-0.742,0.327s-0.292,0.515-0.288,0.889H71.045z"/>
	<path class="st1" d="M74.893,1.421v2.632c0.443-0.518,0.972-0.776,1.587-0.776c0.316,0,0.601,0.059,0.854,0.176
		s0.445,0.267,0.574,0.449s0.216,0.384,0.264,0.605s0.071,0.564,0.071,1.03v3.042H76.87V5.84c0-0.544-0.026-0.889-0.078-1.035
		s-0.144-0.263-0.276-0.349c-0.132-0.087-0.297-0.13-0.496-0.13c-0.228,0-0.431,0.056-0.61,0.166S75.1,4.77,75.017,4.993
		c-0.083,0.223-0.125,0.552-0.125,0.988v2.598h-1.372V1.421H74.893z"/>
	<path class="st1" d="M79.898,4.766V3.394h1.372v1.372H79.898z M79.898,8.579V7.207h1.372v1.372H79.898z"/>
</g>
</svg>